Assignment 3: Relationships
…
differences1_bay <- TukeyHSD(anova1_bay)
summary(differences1_bay)

##        Length Class  Mode   
## county 144    -none- numeric

as_tibble(cbind(pair = row.names(differences1_bay$county),
                differences1_bay$county))

## # A tibble: 36 x 5
##    pair             diff            lwr           upr            `p adj`        
##    <chr>            <chr>           <chr>         <chr>          <chr>          
##  1 ContraCosta-Ala -0.01632509340 -0.044820109 0.01216992241 0.695901855810
##  2 Marin-Alameda    -0.05045622723 -0.097750140 -0.0031623140 0.026287578931
##  3 Napa-Alameda     -0.02553087021 -0.079976439 0.02891469939 0.875261051958
##  4 San Francisco-A 0.002506064906 -0.026540296 0.03155242596 0.999999221480
##  5 San Mateo-Alame -0.05533048811 -0.086643518 -0.0240174578 1.684379579924
##  6 Santa Clara-Ala -0.03911401670 -0.063265656 -0.0149623772 1.926530462215
##  7 Solano-Alameda   0.015326159855 -0.022353453 0.05300577353 0.941638577814
##  8 Sonoma-Alameda   -0.00201950894 -0.039091959 0.03505294131 0.999999979632
##  9 Marin-ContraCos -0.03413113382 -0.083687325 0.01542505787 0.446690387508
## 10 Napa-ContraCosta -0.00920577680 -0.065627598 0.04721604491 0.999890381914
## #  with 26 more rows
…
differences2_bay <- TukeyHSD(anova2_bay)
summary(differences2_bay)

##        Length Class  Mode   
## county 144    -none- numeric

as_tibble(cbind(pair = row.names(differences2_bay$county),
                differences2_bay$county))

## # A tibble: 36 x 5
##    pair            diff            lwr             upr           `p adj`        
##    <chr>           <chr>           <chr>           <chr>         <chr>          
##  1 ContraCosta-Al -0.00391827539 -0.02517757590 0.0173410251 0.999725454145
##  2 Marin-Alameda   0.048660813793 0.013376204085 0.0839454235 0.000657281750
##  3 Napa-Alameda    -0.00654007425 -0.04716032635 0.0340801778 0.999900904826
##  4 San Francisco- 0.063992326050 0.042321682923 0.0856629691 0              
##  5 San Mateo-Alam -0.01265438411 -0.03601612302 0.0107073547 0.757407803368
##  6 Santa Clara-Al -0.02891466463 -0.04693349865 -0.010895830 2.433934924683
##  7 Solano-Alameda  -0.01652372840 -0.04463538960 0.0115879327 0.665001745013
##  8 Sonoma-Alameda  0.027610746636 -4.79276372635 0.0552694209 0.050801917263
##  9 Marin-ContraCo 0.052579089186 0.015606659395 0.0895515189 0.000364389530
## 10 Napa-ContraCos -0.00262179886 -0.04471647504 0.0394728773 0.999999940948
## #  with 26 more rows
…
differences3_bay <- TukeyHSD(anova3_bay)
summary(differences3_bay)

##        Length Class  Mode   
## county 144    -none- numeric

as_tibble(cbind(pair = row.names(differences3_bay$county),
                differences3_bay$county))

## # A tibble: 36 x 5
##    pair            diff            lwr             upr            `p adj`       
##    <chr>           <chr>           <chr>           <chr>          <chr>         
##  1 ContraCosta-Al -0.00398210505 -0.00970664437 0.00174243426 0.43223096942
##  2 Marin-Alameda   -0.01492402436 -0.02442519000 -0.0054228587 4.12376405920
##  3 Napa-Alameda    -0.01048927352 -0.02142717950 0.00044863244 0.07211066937
##  4 San Francisco- -0.00431905227 -0.01015435473 0.00151625018 0.34320343602
##  5 San Mateo-Alam -0.01479354167 -0.02108420927 -0.0085028740 1.37663214161
##  6 Santa Clara-Al -0.01058322370 -0.01543519537 -0.0057312520 6.28561092064
##  7 Solano-Alameda  0.007556443369 -1.32464082489 0.01512613314 0.05080988618
##  8 Sonoma-Alameda  -0.00085247717 -0.00830019015 0.00659523580 0.99999285409
##  9 Marin-ContraCo -0.01094191931 -0.02089756803 -0.0009862705 0.01891255651
## 10 Napa-ContraCos -0.00650716847 -0.01784209591 0.00482775896 0.69350277448
## #  with 26 more rows
…
differences1_jefferson <- TukeyHSD(anova1_jefferson)
summary(differences1_jefferson)

##        Length Class  Mode   
## county 84     -none- numeric

as_tibble(cbind(pair = row.names(differences1_jefferson$county),
                differences1_jefferson$county))

## # A tibble: 21 x 5
##    pair           diff             lwr             upr            `p adj`       
##    <chr>          <chr>            <chr>           <chr>          <chr>         
##  1 Lassen-Del No -0.128906243776 -0.27853695327 0.02072446571 0.13862983219
##  2 Modoc-Del Nor -0.034318216962 -0.22041906215 0.15178262822 0.99779899942
##  3 Plumas-Del No -0.150329014089 -0.30903634812 0.00837831994 0.07534479612
##  4 Shasta-Del No -0.075211959747 -0.19533953877 0.04491561927 0.49251726621
##  5 Siskiyou-Del  -0.008353857335 -0.14579844037 0.12909072570 0.99999659825
##  6 Trinity-Del N 0.0118624338208 -0.16199273996 0.18571760760 0.99999323205
##  7 Modoc-Lassen   0.0945880268138 -0.08383522259 0.27301127621 0.68255072294
##  8 Plumas-Lassen  -0.021422770313 -0.17105347980 0.12820793918 0.99947636910
##  9 Shasta-Lassen  0.0536942840292 -0.05415731117 0.16154587923 0.74245816191
## 10 Siskiyou-Lass 0.1205523864407 -0.00630321948 0.24740799236 0.07360236240
## #  with 11 more rows
…
differences2_jefferson <- TukeyHSD(anova2_jefferson)
summary(differences2_jefferson)

##        Length Class  Mode   
## county 84     -none- numeric

as_tibble(cbind(pair = row.names(differences2_jefferson$county),
                differences2_jefferson$county))

## # A tibble: 21 x 5
##    pair            diff            lwr             upr            `p adj`       
##    <chr>           <chr>           <chr>           <chr>          <chr>         
##  1 Lassen-Del Nor 0.014179495658 -0.07257634944 0.10093534076 0.99888445798
##  2 Modoc-Del Norte 0.048437397439 -0.05946382253 0.15633861741 0.82368548519
##  3 Plumas-Del Nor 0.087343439871 -0.00467502970 0.17936190944 0.07422580652
##  4 Shasta-Del Nor 0.032016485903 -0.03763345209 0.10166642390 0.80700480182
##  5 Siskiyou-Del N 0.075509137393 -0.00418119487 0.15519946966 0.07516183462
##  6 Trinity-Del No 0.088808008510 -0.01199317447 0.18960919149 0.12142341665
##  7 Modoc-Lassen    0.034257901780 -0.06919185021 0.13770765378 0.95280001261
##  8 Plumas-Lassen   0.073163944213 -0.01359190089 0.15991978931 0.15627014542
##  9 Shasta-Lassen   0.017836990244 -0.04469533563 0.08036931612 0.97728475207
## 10 Siskiyou-Lassen 0.061329641734 -0.01222120445 0.13488048791 0.16613629355
## #  with 11 more rows
…
differences3_jefferson <- TukeyHSD(anova3_jefferson)
summary(differences3_jefferson)

##        Length Class  Mode   
## county 84     -none- numeric

as_tibble(cbind(pair = row.names(differences3_jefferson$county),
                differences3_jefferson$county))

## # A tibble: 21 x 5
##    pair           diff            lwr             upr             `p adj`       
##    <chr>          <chr>           <chr>           <chr>           <chr>         
##  1 Lassen-Del No -0.03487674366 -0.07126071169 0.001507224369 0.06912633751
##  2 Modoc-Del Nor -0.03739425450 -0.08264624339 0.007857734372 0.17423629506
##  3 Plumas-Del No -0.03851517903 -0.07710620482 7.584674962399 0.05079189580
##  4 Shasta-Del No -0.02652266246 -0.05573269568 0.002687370752 0.10047516292
##  5 Siskiyou-Del  -0.01251315289 -0.04593396158 0.020907655794 0.91705350313
##  6 Trinity-Del N -0.02403897961 -0.06631333029 0.018235371065 0.60708867844
##  7 Modoc-Lassen   -0.00251751084 -0.04590262760 0.040867605918 0.99999741883
##  8 Plumas-Lassen  -0.00363843537 -0.04002240340 0.032745532663 0.99993511858
##  9 Shasta-Lassen  0.008354081196 -0.01787094310 0.034579105496 0.96079871683
## 10 Siskiyou-Lass 0.022363590771 -0.00848241889 0.053209600434 0.31250435319
## #  with 11 more rows
…
